Queen Margrethe II's New Year’s Address 2020+2021 (English)
…
# For text mining
library(pdftools)
library(textdata)
library(tidytext)
library(ggwordcloud)

# For later sentiment analysis

# Categorizes into 8 emotions (anger, anticipation, disgust, fear, joy, sadness, surprise, trust) and positive / negative
get_sentiments(lexicon = "nrc")

## # A tibble: 13,872 × 2
##    word        sentiment
##    <chr>       <chr>    
##  1 abacus      trust    
##  2 abandon     fear     
##  3 abandon     negative 
##  4 abandon     sadness  
##  5 abandoned   anger    
##  6 abandoned   fear     
##  7 abandoned   negative 
##  8 abandoned   sadness  
##  9 abandonment anger    
## 10 abandonment fear     
## # … with 13,862 more rows

# Assigns words with a score that runs between -5 and 5 (-5 most negative sentiment, 5 most positive sentiment)
get_sentiments(lexicon = "afinn")

## # A tibble: 2,477 × 2
##    word       value
##    <chr>      <dbl>
##  1 abandon       -2
##  2 abandoned     -2
##  3 abandons      -2
##  4 abducted      -2
##  5 abduction     -2
##  6 abductions    -2
##  7 abhor         -3
##  8 abhorred      -3
##  9 abhorrent     -3
## 10 abhors        -3
## # … with 2,467 more rows

# Categorizes words into a binary fashion (positive and negative)
get_sentiments(lexicon = "bing")

## # A tibble: 6,786 × 2
##    word        sentiment
##    <chr>       <chr>    
##  1 2-faces     negative 
##  2 abnormal    negative 
##  3 abolish     negative 
##  4 abominable  negative 
##  5 abominably  negative 
##  6 abominate   negative 
##  7 abomination negative 
##  8 abort       negative 
##  9 aborted     negative 
## 10 aborts      negative 
## # … with 6,776 more rows
…
NYE_q_e_20_21_tokens <- NYE_q_e_20_21_df %>% 
  unnest_tokens(word, text_full)

# now there are only words, no punctuations or similar, and each word has its own row

Count words

# count the words
NYE_q_e_20_21_wc <- NYE_q_e_20_21_tokens %>% 
  count(word) %>% 
  arrange(-n)

NYE_q_e_20_21_wc

## # A tibble: 913 × 2
##    word      n
##    <chr> <int>
##  1 the     194
##  2 to      139
##  3 and     131
##  4 in       88
##  5 we       85
##  6 a        65
##  7 of       59
##  8 have     51
##  9 it       50
## 10 i        47
## # … with 903 more rows
…
